{
    "rasa_nlu_data": {
        "common_examples": [
            {
                "text": "i can't pay my rent",
                "intent": "rentarrears",
                "entities": []
            },
            {
                "text": "i'm behind on my rent",
                "intent": "rentarrears",
                "entities": []
            },
            {
                "text": "we are behind on rent",
                "intent": "rentarrears",
                "entities": []
            },
            {
                "text": "i have unpaid rent",
                "intent": "rentarrears",
                "entities": []
            },
            {
                "text": "i can't pay my rent this month",
                "intent": "rentarrears",
                "entities": []
            },
            {
                "text": "i am struggling to pay the rent",
                "intent": "rentarrears",
                "entities": []
            },
            {
                "text": "i have rental arrears",
                "intent": "rentarrears",
                "entities": []
            },
            {
                "text": "our rent is in arrears",
                "intent": "rentarrears",
                "entities": []
            },
            {
                "text": "i owe heaps in rent",
                "intent": "rentarrears",
                "entities": []
            },
            {
                "text": "my landlord is chasing the rent",
                "intent": "rentarrears",
                "entities": []
            },
            {
                "text": "i want to get a dog but my landlord won't allow it",
                "intent": "pets",
                "entities": [
                    {
                        "entity": "pets",
                        "value": "dog",
                        "start": 16,
                        "end": 19,
                        "matched": "dog"
                    }
                ]
            },
            {
                "text": "my landlord won't let me get a cat",
                "intent": "pets",
                "entities": [
                    {
                        "entity": "pets",
                        "value": "cat",
                        "start": 31,
                        "end": 34,
                        "matched": "cat"
                    }
                ]
            },
            {
                "text": "can i get a cat if i'm renting?",
                "intent": "pets",
                "entities": [
                    {
                        "entity": "pets",
                        "value": "cat",
                        "start": 12,
                        "end": 15,
                        "matched": "cat"
                    }
                ]
            },
            {
                "text": "how do i get permission to have a pet?",
                "intent": "pets",
                "entities": []
            },
            {
                "text": "i want permission for a pet",
                "intent": "pets",
                "entities": []
            },
            {
                "text": "i want a dog at my rental place",
                "intent": "pets",
                "entities": [
                    {
                        "entity": "pets",
                        "value": "dog",
                        "start": 9,
                        "end": 12,
                        "matched": "dog"
                    }
                ]
            },
            {
                "text": "my girlfriend wants to get a cat",
                "intent": "pets",
                "entities": [
                    {
                        "entity": "pets",
                        "value": "cat",
                        "start": 29,
                        "end": 32,
                        "matched": "cat"
                    }
                ]
            },
            {
                "text": "we got in trouble for keeping a dog",
                "intent": "pets",
                "entities": [
                    {
                        "entity": "pets",
                        "value": "dog",
                        "start": 32,
                        "end": 35,
                        "matched": "dog"
                    }
                ]
            },
            {
                "text": "the landlord found out about our pets",
                "intent": "pets",
                "entities": []
            },
            {
                "text": "i am being evicted",
                "intent": "eviction",
                "entities": []
            },
            {
                "text": "i need help to fight an eviction",
                "intent": "eviction",
                "entities": []
            },
            {
                "text": "my landlord is evicting me",
                "intent": "eviction",
                "entities": []
            },
            {
                "text": "we are being kicked out of our place",
                "intent": "eviction",
                "entities": []
            },
            {
                "text": "we are going to be evicted next week",
                "intent": "eviction",
                "entities": []
            },
            {
                "text": "my landlord has sought an order for possession",
                "intent": "eviction",
                "entities": []
            },
            {
                "text": "i received a 60 day notice",
                "intent": "eviction",
                "entities": []
            },
            {
                "text": "i received a notice of eviction",
                "intent": "eviction",
                "entities": []
            },
            {
                "text": "i am going to be evicted",
                "intent": "eviction",
                "entities": []
            },
            {
                "text": "i am being kicked out of my rental property",
                "intent": "eviction",
                "entities": []
            },
            {
                "text": "we are getting a rent increase",
                "intent": "rentincrease",
                "entities": []
            },
            {
                "text": "the landlord wants to put the rent up",
                "intent": "rentincrease",
                "entities": []
            },
            {
                "text": "my rent is going up by too much",
                "intent": "rentincrease",
                "entities": []
            },
            {
                "text": "the landlord put the rent up and now i can't afford it",
                "intent": "rentincrease",
                "entities": []
            },
            {
                "text": "we got a notice that the rent was going up",
                "intent": "rentincrease",
                "entities": []
            },
            {
                "text": "i want to challenge a rent increase",
                "intent": "rentincrease",
                "entities": []
            },
            {
                "text": "my landlord won't fix the sink",
                "intent": "maintenance",
                "entities": [
                    {
                        "entity": "house-part",
                        "value": "sink",
                        "start": 26,
                        "end": 30,
                        "matched": "sink"
                    }
                ]
            },
            {
                "text": "the oven at my rental property is broken",
                "intent": "maintenance",
                "entities": [
                    {
                        "entity": "house-part",
                        "value": "oven",
                        "start": 4,
                        "end": 8,
                        "matched": "oven"
                    }
                ]
            },
            {
                "text": "we need a plumber",
                "intent": "maintenance",
                "entities": []
            },
            {
                "text": "our toilet is blocked",
                "intent": "maintenance",
                "entities": [
                    {
                        "entity": "house-part",
                        "value": "toilet",
                        "start": 4,
                        "end": 10,
                        "matched": "toilet"
                    }
                ]
            },
            {
                "text": "our door needs fixing",
                "intent": "maintenance",
                "entities": [
                    {
                        "entity": "house-part",
                        "value": "door",
                        "start": 4,
                        "end": 8,
                        "matched": "door"
                    }
                ]
            },
            {
                "text": "my gutters need to be cleaned",
                "intent": "maintenance",
                "entities": []
            },
            {
                "text": "i want the landlord to replace the window locks",
                "intent": "maintenance",
                "entities": [
                    {
                        "entity": "house-part",
                        "value": "locks",
                        "start": 42,
                        "end": 47,
                        "matched": "locks"
                    },
                    {
                        "entity": "house-part",
                        "value": "window",
                        "start": 35,
                        "end": 41,
                        "matched": "window"
                    }
                ]
            },
            {
                "text": "my toilet is leaking",
                "intent": "maintenance",
                "entities": [
                    {
                        "entity": "house-part",
                        "value": "toilet",
                        "start": 3,
                        "end": 9,
                        "matched": "toilet"
                    }
                ]
            },
            {
                "text": "my rental property needs repairs",
                "intent": "maintenance",
                "entities": []
            },
            {
                "text": "my place needs maintenance",
                "intent": "maintenance",
                "entities": []
            },
            {
                "text": "our house is filthy and the landlord won't clean it",
                "intent": "maintenance",
                "entities": []
            },
            {
                "text": "how can i get the landlord to fix the oven",
                "intent": "maintenance",
                "entities": [
                    {
                        "entity": "house-part",
                        "value": "oven",
                        "start": 38,
                        "end": 42,
                        "matched": "oven"
                    }
                ]
            },
            {
                "text": "my landlord is taking too long to repair our window",
                "intent": "maintenance",
                "entities": [
                    {
                        "entity": "house-part",
                        "value": "window",
                        "start": 45,
                        "end": 51,
                        "matched": "window"
                    }
                ]
            },
            {
                "text": "yes",
                "intent": "yes",
                "entities": []
            },
            {
                "text": "yes it does",
                "intent": "yes",
                "entities": []
            },
            {
                "text": "yep",
                "intent": "yes",
                "entities": []
            },
            {
                "text": "yeppers",
                "intent": "yes",
                "entities": []
            },
            {
                "text": "yes it can",
                "intent": "yes",
                "entities": []
            },
            {
                "text": "yea",
                "intent": "yes",
                "entities": []
            },
            {
                "text": "yeah",
                "intent": "yes",
                "entities": []
            },
            {
                "text": "nah",
                "intent": "no",
                "entities": []
            },
            {
                "text": "no it doesnt",
                "intent": "no",
                "entities": []
            },
            {
                "text": "it does not",
                "intent": "no",
                "entities": []
            },
            {
                "text": "nope",
                "intent": "no",
                "entities": []
            },
            {
                "text": "never",
                "intent": "no",
                "entities": []
            },
            {
                "text": "nup",
                "intent": "no",
                "entities": []
            },
            {
                "text": "not at all",
                "intent": "no",
                "entities": []
            },
            {
                "text": "not even close",
                "intent": "no",
                "entities": []
            },
            {
                "text": "no chance",
                "intent": "no",
                "entities": []
            },
            {
                "text": "thats right",
                "intent": "yes",
                "entities": []
            },
            {
                "text": "thats correct",
                "intent": "yes",
                "entities": []
            },
            {
                "text": "correct",
                "intent": "yes",
                "entities": []
            },
            {
                "text": "right",
                "intent": "yes",
                "entities": []
            },
            {
                "text": "yes thats right",
                "intent": "yes",
                "entities": []
            },
            {
                "text": "yes i am",
                "intent": "yes",
                "entities": []
            },
            {
                "text": "yes it did",
                "intent": "yes",
                "entities": []
            },
            {
                "text": "no im not",
                "intent": "no",
                "entities": []
            },
            {
                "text": "no i didnt",
                "intent": "no",
                "entities": []
            },
            {
                "text": "thats not right",
                "intent": "no",
                "entities": []
            },
            {
                "text": "thats not correct",
                "intent": "no",
                "entities": []
            },
            {
                "text": "i agree",
                "intent": "yes",
                "entities": []
            },
            {
                "text": "i disagree",
                "intent": "no",
                "entities": []
            },
            {
                "text": "it does",
                "intent": "yes",
                "entities": []
            },
            {
                "text": "indeed",
                "intent": "yes",
                "entities": []
            },
            {
                "text": "of course",
                "intent": "yes",
                "entities": []
            },
            {
                "text": "i think so",
                "intent": "yes",
                "entities": []
            },
            {
                "text": "i dont think so",
                "intent": "no",
                "entities": []
            },
            {
                "text": "im not sure",
                "intent": "unsure",
                "entities": []
            },
            {
                "text": "sure",
                "intent": "yes",
                "entities": []
            },
            {
                "text": "i dunno",
                "intent": "unsure",
                "entities": []
            },
            {
                "text": "dunno",
                "intent": "unsure",
                "entities": []
            },
            {
                "text": "i dont know",
                "intent": "unsure",
                "entities": []
            },
            {
                "text": "i dont have a clue",
                "intent": "unsure",
                "entities": []
            },
            {
                "text": "no clue",
                "intent": "unsure",
                "entities": []
            },
            {
                "text": "no idea",
                "intent": "unsure",
                "entities": []
            },
            {
                "text": "i have no idea",
                "intent": "unsure",
                "entities": []
            },
            {
                "text": "not sure",
                "intent": "unsure",
                "entities": []
            },
            {
                "text": "who knows",
                "intent": "unsure",
                "entities": []
            },
            {
                "text": "cannot be sure",
                "intent": "unsure",
                "entities": []
            },
            {
                "text": "no one knows",
                "intent": "unsure",
                "entities": []
            },
            {
                "text": "it could be",
                "intent": "maybe",
                "entities": []
            },
            {
                "text": "maybe",
                "intent": "maybe",
                "entities": []
            },
            {
                "text": "i wouldnt have",
                "intent": "no",
                "entities": []
            },
            {
                "text": "possibly",
                "intent": "maybe",
                "entities": []
            },
            {
                "text": "possibly not",
                "intent": "maybe",
                "entities": []
            },
            {
                "text": "i would have",
                "intent": "yes",
                "entities": []
            },
            {
                "text": "thats probable",
                "intent": "yes",
                "entities": []
            },
            {
                "text": "probably",
                "intent": "yes",
                "entities": []
            },
            {
                "text": "i guess so",
                "intent": "yes",
                "entities": []
            },
            {
                "text": "i guess not",
                "intent": "no",
                "entities": []
            },
            {
                "text": "no probably not",
                "intent": "no",
                "entities": []
            },
            {
                "text": "i cant work it out",
                "intent": "unsure",
                "entities": []
            },
            {
                "text": "i cant figure it out",
                "intent": "unsure",
                "entities": []
            },
            {
                "text": "i can work it out",
                "intent": "unsure",
                "entities": []
            },
            {
                "text": "i can figure it out",
                "intent": "unsure",
                "entities": []
            },
            {
                "text": "i cant be certain",
                "intent": "unsure",
                "entities": []
            },
            {
                "text": "certainly",
                "intent": "yes",
                "entities": []
            },
            {
                "text": "definitely",
                "intent": "yes",
                "entities": []
            },
            {
                "text": "for sure",
                "intent": "yes",
                "entities": []
            },
            {
                "text": "fo shizzle",
                "intent": "yes",
                "entities": []
            },
            {
                "text": "for shizzle",
                "intent": "yes",
                "entities": []
            },
            {
                "text": "absolutely",
                "intent": "yes",
                "entities": []
            },
            {
                "text": "most definitely",
                "intent": "yes",
                "entities": []
            },
            {
                "text": "almost definitely",
                "intent": "yes",
                "entities": []
            },
            {
                "text": "cant be sure",
                "intent": "unsure",
                "entities": []
            },
            {
                "text": "it is",
                "intent": "yes",
                "entities": []
            },
            {
                "text": "its not",
                "intent": "no",
                "entities": []
            },
            {
                "text": "he is",
                "intent": "yes",
                "entities": []
            },
            {
                "text": "she is",
                "intent": "yes",
                "entities": []
            },
            {
                "text": "he is not",
                "intent": "no",
                "entities": []
            },
            {
                "text": "she isnt",
                "intent": "no",
                "entities": []
            },
            {
                "text": "they are",
                "intent": "yes",
                "entities": []
            },
            {
                "text": "they are not",
                "intent": "no",
                "entities": []
            },
            {
                "text": "no i dont",
                "intent": "no",
                "entities": []
            },
            {
                "text": "i dont",
                "intent": "no",
                "entities": []
            },
            {
                "text": "i do",
                "intent": "yes",
                "entities": []
            },
            {
                "text": "yes i do",
                "intent": "yes",
                "entities": []
            },
            {
                "text": "they didnt",
                "intent": "no",
                "entities": []
            },
            {
                "text": "they did",
                "intent": "yes",
                "entities": []
            },
            {
                "text": "i would",
                "intent": "yes",
                "entities": []
            },
            {
                "text": "no i wouldnt",
                "intent": "no",
                "entities": []
            },
            {
                "text": "i might agree",
                "intent": "maybe",
                "entities": []
            },
            {
                "text": "i might disagree",
                "intent": "maybe",
                "entities": []
            },
            {
                "text": "i might",
                "intent": "maybe",
                "entities": []
            },
            {
                "text": "i may",
                "intent": "maybe",
                "entities": []
            },
            {
                "text": "i want to",
                "intent": "yes",
                "entities": []
            },
            {
                "text": "i dont want to",
                "intent": "no",
                "entities": []
            },
            {
                "text": "i would like to",
                "intent": "yes",
                "entities": []
            },
            {
                "text": "i wouldnt like to",
                "intent": "no",
                "entities": []
            },
            {
                "text": "yes please",
                "intent": "yes",
                "entities": []
            },
            {
                "text": "no thank you",
                "intent": "no",
                "entities": []
            },
            {
                "text": "i believe so",
                "intent": "yes",
                "entities": []
            },
            {
                "text": "i dont believe so",
                "intent": "no",
                "entities": []
            },
            {
                "text": "i believe it is",
                "intent": "yes",
                "entities": []
            },
            {
                "text": "i dont believe it is",
                "intent": "no",
                "entities": []
            },
            {
                "text": "i think she is",
                "intent": "yes",
                "entities": []
            },
            {
                "text": "i dont think he will",
                "intent": "no",
                "entities": []
            },
            {
                "text": "meh",
                "intent": "maybe",
                "entities": []
            },
            {
                "text": "sigh",
                "intent": "maybe",
                "entities": []
            },
            {
                "text": "perhaps",
                "intent": "maybe",
                "entities": []
            },
            {
                "text": "unsure",
                "intent": "unsure",
                "entities": []
            },
            {
                "text": "im unsure",
                "intent": "unsure",
                "entities": []
            },
            {
                "text": "dont do that",
                "intent": "no",
                "entities": []
            },
            {
                "text": "yep do it",
                "intent": "yes",
                "entities": []
            },
            {
                "text": "no thanks",
                "intent": "no",
                "entities": []
            },
            {
                "text": "please dont",
                "intent": "no",
                "entities": []
            },
            {
                "text": "no way",
                "intent": "no",
                "entities": []
            },
            {
                "text": "yay",
                "intent": "yes",
                "entities": []
            },
            {
                "text": "nay",
                "intent": "no",
                "entities": []
            },
            {
                "text": "negative",
                "intent": "no",
                "entities": []
            },
            {
                "text": "negatory",
                "intent": "no",
                "entities": []
            },
            {
                "text": "nein",
                "intent": "no",
                "entities": []
            },
            {
                "text": "nevermind",
                "intent": "no",
                "entities": []
            },
            {
                "text": "nyet",
                "intent": "no",
                "entities": []
            },
            {
                "text": "aye",
                "intent": "yes",
                "entities": []
            },
            {
                "text": "go ahead",
                "intent": "yes",
                "entities": []
            },
            {
                "text": "dont go ahead",
                "intent": "no",
                "entities": []
            },
            {
                "text": "perfect",
                "intent": "yes",
                "entities": []
            },
            {
                "text": "absolutely not",
                "intent": "no",
                "entities": []
            },
            {
                "text": "make it so",
                "intent": "yes",
                "entities": []
            },
            {
                "text": "affirmative",
                "intent": "yes",
                "entities": []
            },
            {
                "text": "alright",
                "intent": "yes",
                "entities": []
            },
            {
                "text": "nah its ok",
                "intent": "no",
                "entities": []
            },
            {
                "text": "ok",
                "intent": "yes",
                "entities": []
            },
            {
                "text": "certainly",
                "intent": "yes",
                "entities": []
            },
            {
                "text": "confirmed",
                "intent": "yes",
                "entities": []
            },
            {
                "text": "nah mate",
                "intent": "no",
                "entities": []
            },
            {
                "text": "yea bro",
                "intent": "yes",
                "entities": []
            },
            {
                "text": "not in a million years",
                "intent": "no",
                "entities": []
            },
            {
                "text": "not if you were the last person on earth",
                "intent": "no",
                "entities": []
            },
            {
                "text": "ja",
                "intent": "yes",
                "entities": []
            },
            {
                "text": "yass",
                "intent": "yes",
                "entities": []
            },
            {
                "text": "ya",
                "intent": "yes",
                "entities": []
            },
            {
                "text": "yesssssssss",
                "intent": "yes",
                "entities": []
            },
            {
                "text": "da",
                "intent": "yes",
                "entities": []
            },
            {
                "text": "okay",
                "intent": "yes",
                "entities": []
            },
            {
                "text": "righto",
                "intent": "yes",
                "entities": []
            },
            {
                "text": "totally",
                "intent": "yes",
                "entities": []
            },
            {
                "text": "true",
                "intent": "yes",
                "entities": []
            },
            {
                "text": "false",
                "intent": "no",
                "entities": []
            },
            {
                "text": "wrong",
                "intent": "no",
                "entities": []
            },
            {
                "text": "right",
                "intent": "yes",
                "entities": []
            },
            {
                "text": "y",
                "intent": "yes",
                "entities": []
            },
            {
                "text": "n",
                "intent": "no",
                "entities": []
            },
            {
                "text": "hmm",
                "intent": "maybe",
                "entities": []
            },
            {
                "text": "hmm yea",
                "intent": "yes",
                "entities": []
            },
            {
                "text": "hmm no",
                "intent": "no",
                "entities": []
            },
            {
                "text": "um yes",
                "intent": "yes",
                "entities": []
            },
            {
                "text": "um no",
                "intent": "no",
                "entities": []
            },
            {
                "text": "i reckon",
                "intent": "yes",
                "entities": []
            },
            {
                "text": "i dont reckon",
                "intent": "no",
                "entities": []
            },
            {
                "text": "na bro thats bullshit",
                "intent": "no",
                "entities": []
            }
        ]
    }
}
